<?xml version="1.0" encoding="UTF-8"?>
<!DOCTYPE xml>
<svg xmlns="http://www.w3.org/2000/svg" xmlns:xlink="http://www.w3.org/1999/xlink" width="19.906" height="30" viewBox="0 0 19.906 30">
	<defs>
		<radialGradient id="a" cx="0.5" cy="0.5" r="0.5" gradientUnits="objectBoundingBox">
			<stop offset="0" stop-color="#ffe19a" />
			<stop offset="1" stop-color="#ffc234" />
		</radialGradient>
	</defs>
	<g transform="translate(-6.047 -1)">
		<circle cx="4" cy="4" r="4" transform="translate(12 7)" stroke="#ffffff" stroke-linecap="round" stroke-linejoin="round" stroke-width="2" fill="url(#a)" />
		<path d="M24,15a132.345,132.345,0,0,1-8,15A132.345,132.345,0,0,1,8,15C5,8,10,2,16,2S27,8,24,15Z" stroke="#ffffff" stroke-linecap="round" stroke-linejoin="round" stroke-width="2" fill="url(#a)" />
	</g>
</svg>